﻿<?xml version="1.0" encoding="UTF-8"?>
<TestRun id="1f963ef6-e248-4448-8efe-f082281d8bad" name="Joe@JOE-PC 2013-12-09 11:10:34" runUser="Joe-PC\Joe" xmlns="http://microsoft.com/schemas/VisualStudio/TeamTest/2010">
  <TestSettings name="Local" id="6d0bb748-144b-4c4e-af8d-6711d9d430d5">
    <Description>These are default test settings for a local test run.</Description>
    <Deployment enabled="false" runDeploymentRoot="Joe_JOE-PC 2013-12-09 11_10_34">
      <DeploymentItem filename="C:\Users\Joe\Documents\Visual Studio 2010\Projects\BoggleApplication\WebApplication6\WebApplication6\bin\WebApplication6.dll" />
    </Deployment>
    <Execution>
      <TestTypeSpecific />
      <AgentRule name="Execution Agents">
      </AgentRule>
    </Execution>
  </TestSettings>
  <Times creation="2013-12-09T11:10:34.6312331-08:00" queuing="2013-12-09T11:10:34.6442339-08:00" start="2013-12-09T11:10:34.6502342-08:00" finish="2013-12-09T11:10:35.2552688-08:00" />
  <ResultSummary outcome="Completed">
    <Counters total="13" executed="13" passed="13" error="0" failed="0" timeout="0" aborted="0" inconclusive="0" passedButRunAborted="0" notRunnable="0" notExecuted="0" disconnected="0" warning="0" completed="0" inProgress="0" pending="0" />
  </ResultSummary>
  <TestDefinitions>
    <UnitTest name="RandomCharTest" storage="c:\users\joe\documents\visual studio 2010\projects\boggleapplication\webapplication6\boggletest\bin\release\boggletest.dll" id="7d8783b6-ed1c-67e6-03fe-69bb965a995b">
      <Execution id="245542f0-7f3a-411d-a97c-fb2a861d1661" />
      <TestMethod codeBase="C:/Users/Joe/Documents/Visual Studio 2010/Projects/BoggleApplication/WebApplication6/BoggleTest/bin/Release/BoggleTest.DLL" adapterTypeName="Microsoft.VisualStudio.TestTools.TestTypes.Unit.UnitTestAdapter, Microsoft.VisualStudio.QualityTools.Tips.UnitTest.Adapter, Version=10.0.0.0, Culture=neutral, PublicKeyToken=b03f5f7f11d50a3a" className="BoggleTest.BoggleDiceTest, BoggleTest, Version=1.0.0.0, Culture=neutral, PublicKeyToken=null" name="RandomCharTest" />
    </UnitTest>
    <UnitTest name="RandomDiceTest" storage="c:\users\joe\documents\visual studio 2010\projects\boggleapplication\webapplication6\boggletest\bin\release\boggletest.dll" id="475c4c66-9e39-2830-3d6b-aa7e242ad22a">
      <Execution id="829cb5ac-cee5-40d3-864f-0d6b5cf0a32f" />
      <TestMethod codeBase="C:/Users/Joe/Documents/Visual Studio 2010/Projects/BoggleApplication/WebApplication6/BoggleTest/bin/Release/BoggleTest.DLL" adapterTypeName="Microsoft.VisualStudio.TestTools.TestTypes.Unit.UnitTestAdapter, Microsoft.VisualStudio.QualityTools.Tips.UnitTest.Adapter, Version=10.0.0.0, Culture=neutral, PublicKeyToken=b03f5f7f11d50a3a" className="BoggleTest.BoggleDiceTest, BoggleTest, Version=1.0.0.0, Culture=neutral, PublicKeyToken=null" name="RandomDiceTest" />
    </UnitTest>
    <UnitTest name="AddTest" storage="c:\users\joe\documents\visual studio 2010\projects\boggleapplication\webapplication6\boggletest\bin\release\boggletest.dll" id="8e2e9fc9-d059-1372-68f6-899d2547a2a1">
      <Execution id="640aeaf6-9a38-4f93-8bb1-d99c523081b7" />
      <TestMethod codeBase="C:/Users/Joe/Documents/Visual Studio 2010/Projects/BoggleApplication/WebApplication6/BoggleTest/bin/Release/BoggleTest.DLL" adapterTypeName="Microsoft.VisualStudio.TestTools.TestTypes.Unit.UnitTestAdapter, Microsoft.VisualStudio.QualityTools.Tips.UnitTest.Adapter, Version=10.0.0.0, Culture=neutral, PublicKeyToken=b03f5f7f11d50a3a" className="BoggleTest.BoggleTreeTest, BoggleTest, Version=1.0.0.0, Culture=neutral, PublicKeyToken=null" name="AddTest" />
    </UnitTest>
    <UnitTest name="BoggleTreeConstructorTest" storage="c:\users\joe\documents\visual studio 2010\projects\boggleapplication\webapplication6\boggletest\bin\release\boggletest.dll" id="99e50038-564d-38ef-e4a8-09e83e6192c3">
      <Execution id="a3749c51-4061-47aa-92c5-4975960a6285" />
      <TestMethod codeBase="C:/Users/Joe/Documents/Visual Studio 2010/Projects/BoggleApplication/WebApplication6/BoggleTest/bin/Release/BoggleTest.DLL" adapterTypeName="Microsoft.VisualStudio.TestTools.TestTypes.Unit.UnitTestAdapter, Microsoft.VisualStudio.QualityTools.Tips.UnitTest.Adapter, Version=10.0.0.0, Culture=neutral, PublicKeyToken=b03f5f7f11d50a3a" className="BoggleTest.BoggleTreeTest, BoggleTest, Version=1.0.0.0, Culture=neutral, PublicKeyToken=null" name="BoggleTreeConstructorTest" />
    </UnitTest>
    <UnitTest name="SolveTest1" storage="c:\users\joe\documents\visual studio 2010\projects\boggleapplication\webapplication6\boggletest\bin\release\boggletest.dll" id="593870f8-fd54-143c-1f37-15c1b00aeb64">
      <Execution id="a1a3b8fd-74a5-49c2-8075-151919b18b3b" />
      <TestMethod codeBase="C:/Users/Joe/Documents/Visual Studio 2010/Projects/BoggleApplication/WebApplication6/BoggleTest/bin/Release/BoggleTest.DLL" adapterTypeName="Microsoft.VisualStudio.TestTools.TestTypes.Unit.UnitTestAdapter, Microsoft.VisualStudio.QualityTools.Tips.UnitTest.Adapter, Version=10.0.0.0, Culture=neutral, PublicKeyToken=b03f5f7f11d50a3a" className="BoggleTest.BoggleSolverTest, BoggleTest, Version=1.0.0.0, Culture=neutral, PublicKeyToken=null" name="SolveTest1" />
    </UnitTest>
    <UnitTest name="RandomBoggleCharactersTest" storage="c:\users\joe\documents\visual studio 2010\projects\boggleapplication\webapplication6\boggletest\bin\release\boggletest.dll" id="148b075a-ab93-7eec-8cca-6e299d5b6bd0">
      <Execution id="3531de81-02c7-4be4-b484-136e0a841516" />
      <TestMethod codeBase="C:/Users/Joe/Documents/Visual Studio 2010/Projects/BoggleApplication/WebApplication6/BoggleTest/bin/Release/BoggleTest.DLL" adapterTypeName="Microsoft.VisualStudio.TestTools.TestTypes.Unit.UnitTestAdapter, Microsoft.VisualStudio.QualityTools.Tips.UnitTest.Adapter, Version=10.0.0.0, Culture=neutral, PublicKeyToken=b03f5f7f11d50a3a" className="BoggleTest.BoggleDiceTest, BoggleTest, Version=1.0.0.0, Culture=neutral, PublicKeyToken=null" name="RandomBoggleCharactersTest" />
    </UnitTest>
    <UnitTest name="SolveTest4" storage="c:\users\joe\documents\visual studio 2010\projects\boggleapplication\webapplication6\boggletest\bin\release\boggletest.dll" id="510e65e6-8d3b-fef3-c05e-77c97a54f2b9">
      <Execution id="0b685903-b93a-481a-9db0-bea1f16973bc" />
      <TestMethod codeBase="C:/Users/Joe/Documents/Visual Studio 2010/Projects/BoggleApplication/WebApplication6/BoggleTest/bin/Release/BoggleTest.DLL" adapterTypeName="Microsoft.VisualStudio.TestTools.TestTypes.Unit.UnitTestAdapter, Microsoft.VisualStudio.QualityTools.Tips.UnitTest.Adapter, Version=10.0.0.0, Culture=neutral, PublicKeyToken=b03f5f7f11d50a3a" className="BoggleTest.BoggleSolverTest, BoggleTest, Version=1.0.0.0, Culture=neutral, PublicKeyToken=null" name="SolveTest4" />
    </UnitTest>
    <UnitTest name="BoggleBoardConstructorTest" storage="c:\users\joe\documents\visual studio 2010\projects\boggleapplication\webapplication6\boggletest\bin\release\boggletest.dll" id="aedce3ea-1615-1432-167e-5d044eb29333">
      <Execution id="f93f9ff3-5ecc-49fa-9fa9-441618aaff68" />
      <TestMethod codeBase="C:/Users/Joe/Documents/Visual Studio 2010/Projects/BoggleApplication/WebApplication6/BoggleTest/bin/Release/BoggleTest.DLL" adapterTypeName="Microsoft.VisualStudio.TestTools.TestTypes.Unit.UnitTestAdapter, Microsoft.VisualStudio.QualityTools.Tips.UnitTest.Adapter, Version=10.0.0.0, Culture=neutral, PublicKeyToken=b03f5f7f11d50a3a" className="BoggleTest.BoggleBoardTest, BoggleTest, Version=1.0.0.0, Culture=neutral, PublicKeyToken=null" name="BoggleBoardConstructorTest" />
    </UnitTest>
    <UnitTest name="SearchTest" storage="c:\users\joe\documents\visual studio 2010\projects\boggleapplication\webapplication6\boggletest\bin\release\boggletest.dll" id="941b0ffc-a12d-e9f9-614c-a290260a69a8">
      <Execution id="0e3d5c8f-5728-4120-8621-85f7e32d495f" />
      <TestMethod codeBase="C:/Users/Joe/Documents/Visual Studio 2010/Projects/BoggleApplication/WebApplication6/BoggleTest/bin/Release/BoggleTest.DLL" adapterTypeName="Microsoft.VisualStudio.TestTools.TestTypes.Unit.UnitTestAdapter, Microsoft.VisualStudio.QualityTools.Tips.UnitTest.Adapter, Version=10.0.0.0, Culture=neutral, PublicKeyToken=b03f5f7f11d50a3a" className="BoggleTest.BoggleTreeTest, BoggleTest, Version=1.0.0.0, Culture=neutral, PublicKeyToken=null" name="SearchTest" />
    </UnitTest>
    <UnitTest name="SolveTest" storage="c:\users\joe\documents\visual studio 2010\projects\boggleapplication\webapplication6\boggletest\bin\release\boggletest.dll" id="14ba2859-2fe0-caed-542e-f6dd22da33d8">
      <Execution id="ea3da327-1ba6-47d2-933c-629a615d33c5" />
      <TestMethod codeBase="C:/Users/Joe/Documents/Visual Studio 2010/Projects/BoggleApplication/WebApplication6/BoggleTest/bin/Release/BoggleTest.DLL" adapterTypeName="Microsoft.VisualStudio.TestTools.TestTypes.Unit.UnitTestAdapter, Microsoft.VisualStudio.QualityTools.Tips.UnitTest.Adapter, Version=10.0.0.0, Culture=neutral, PublicKeyToken=b03f5f7f11d50a3a" className="BoggleTest.BoggleSolverTest, BoggleTest, Version=1.0.0.0, Culture=neutral, PublicKeyToken=null" name="SolveTest" />
    </UnitTest>
    <UnitTest name="SolveTest3" storage="c:\users\joe\documents\visual studio 2010\projects\boggleapplication\webapplication6\boggletest\bin\release\boggletest.dll" id="67119724-7ab1-8125-16bd-4610ce2a1115">
      <Execution id="1c3bd966-23a7-4d4d-8e4e-09a5184bee4d" />
      <TestMethod codeBase="C:/Users/Joe/Documents/Visual Studio 2010/Projects/BoggleApplication/WebApplication6/BoggleTest/bin/Release/BoggleTest.DLL" adapterTypeName="Microsoft.VisualStudio.TestTools.TestTypes.Unit.UnitTestAdapter, Microsoft.VisualStudio.QualityTools.Tips.UnitTest.Adapter, Version=10.0.0.0, Culture=neutral, PublicKeyToken=b03f5f7f11d50a3a" className="BoggleTest.BoggleSolverTest, BoggleTest, Version=1.0.0.0, Culture=neutral, PublicKeyToken=null" name="SolveTest3" />
    </UnitTest>
    <UnitTest name="SolveTest2" storage="c:\users\joe\documents\visual studio 2010\projects\boggleapplication\webapplication6\boggletest\bin\release\boggletest.dll" id="8ccd833f-dcff-d2ae-70ed-ccda37a52407">
      <Execution id="b3126216-1fed-447e-9d92-d0d81f85d6de" />
      <TestMethod codeBase="C:/Users/Joe/Documents/Visual Studio 2010/Projects/BoggleApplication/WebApplication6/BoggleTest/bin/Release/BoggleTest.DLL" adapterTypeName="Microsoft.VisualStudio.TestTools.TestTypes.Unit.UnitTestAdapter, Microsoft.VisualStudio.QualityTools.Tips.UnitTest.Adapter, Version=10.0.0.0, Culture=neutral, PublicKeyToken=b03f5f7f11d50a3a" className="BoggleTest.BoggleSolverTest, BoggleTest, Version=1.0.0.0, Culture=neutral, PublicKeyToken=null" name="SolveTest2" />
    </UnitTest>
    <UnitTest name="BoggleNodeConstructorTest" storage="c:\users\joe\documents\visual studio 2010\projects\boggleapplication\webapplication6\boggletest\bin\release\boggletest.dll" id="0e9fc43b-fb9c-6ff5-ba59-98fd58b27c25">
      <Execution id="20f49caf-e829-4658-860b-2a06d940301e" />
      <TestMethod codeBase="C:/Users/Joe/Documents/Visual Studio 2010/Projects/BoggleApplication/WebApplication6/BoggleTest/bin/Release/BoggleTest.DLL" adapterTypeName="Microsoft.VisualStudio.TestTools.TestTypes.Unit.UnitTestAdapter, Microsoft.VisualStudio.QualityTools.Tips.UnitTest.Adapter, Version=10.0.0.0, Culture=neutral, PublicKeyToken=b03f5f7f11d50a3a" className="BoggleTest.BoggleBoardTest, BoggleTest, Version=1.0.0.0, Culture=neutral, PublicKeyToken=null" name="BoggleNodeConstructorTest" />
    </UnitTest>
  </TestDefinitions>
  <TestLists>
    <TestList name="Results Not in a List" id="8c84fa94-04c1-424b-9868-57a2d4851a1d" />
    <TestList name="All Loaded Results" id="19431567-8539-422a-85d7-44ee4e166bda" />
  </TestLists>
  <TestEntries>
    <TestEntry testId="0e9fc43b-fb9c-6ff5-ba59-98fd58b27c25" executionId="20f49caf-e829-4658-860b-2a06d940301e" testListId="8c84fa94-04c1-424b-9868-57a2d4851a1d" />
    <TestEntry testId="148b075a-ab93-7eec-8cca-6e299d5b6bd0" executionId="3531de81-02c7-4be4-b484-136e0a841516" testListId="8c84fa94-04c1-424b-9868-57a2d4851a1d" />
    <TestEntry testId="14ba2859-2fe0-caed-542e-f6dd22da33d8" executionId="ea3da327-1ba6-47d2-933c-629a615d33c5" testListId="8c84fa94-04c1-424b-9868-57a2d4851a1d" />
    <TestEntry testId="475c4c66-9e39-2830-3d6b-aa7e242ad22a" executionId="829cb5ac-cee5-40d3-864f-0d6b5cf0a32f" testListId="8c84fa94-04c1-424b-9868-57a2d4851a1d" />
    <TestEntry testId="510e65e6-8d3b-fef3-c05e-77c97a54f2b9" executionId="0b685903-b93a-481a-9db0-bea1f16973bc" testListId="8c84fa94-04c1-424b-9868-57a2d4851a1d" />
    <TestEntry testId="593870f8-fd54-143c-1f37-15c1b00aeb64" executionId="a1a3b8fd-74a5-49c2-8075-151919b18b3b" testListId="8c84fa94-04c1-424b-9868-57a2d4851a1d" />
    <TestEntry testId="67119724-7ab1-8125-16bd-4610ce2a1115" executionId="1c3bd966-23a7-4d4d-8e4e-09a5184bee4d" testListId="8c84fa94-04c1-424b-9868-57a2d4851a1d" />
    <TestEntry testId="7d8783b6-ed1c-67e6-03fe-69bb965a995b" executionId="245542f0-7f3a-411d-a97c-fb2a861d1661" testListId="8c84fa94-04c1-424b-9868-57a2d4851a1d" />
    <TestEntry testId="8ccd833f-dcff-d2ae-70ed-ccda37a52407" executionId="b3126216-1fed-447e-9d92-d0d81f85d6de" testListId="8c84fa94-04c1-424b-9868-57a2d4851a1d" />
    <TestEntry testId="8e2e9fc9-d059-1372-68f6-899d2547a2a1" executionId="640aeaf6-9a38-4f93-8bb1-d99c523081b7" testListId="8c84fa94-04c1-424b-9868-57a2d4851a1d" />
    <TestEntry testId="941b0ffc-a12d-e9f9-614c-a290260a69a8" executionId="0e3d5c8f-5728-4120-8621-85f7e32d495f" testListId="8c84fa94-04c1-424b-9868-57a2d4851a1d" />
    <TestEntry testId="99e50038-564d-38ef-e4a8-09e83e6192c3" executionId="a3749c51-4061-47aa-92c5-4975960a6285" testListId="8c84fa94-04c1-424b-9868-57a2d4851a1d" />
    <TestEntry testId="aedce3ea-1615-1432-167e-5d044eb29333" executionId="f93f9ff3-5ecc-49fa-9fa9-441618aaff68" testListId="8c84fa94-04c1-424b-9868-57a2d4851a1d" />
  </TestEntries>
  <Results>
    <UnitTestResult executionId="20f49caf-e829-4658-860b-2a06d940301e" testId="0e9fc43b-fb9c-6ff5-ba59-98fd58b27c25" testName="BoggleNodeConstructorTest" computerName="JOE-PC" duration="00:00:00.0145266" startTime="2013-12-09T11:10:34.6522343-08:00" endTime="2013-12-09T11:10:34.8102434-08:00" testType="13cdc9d9-ddb5-4fa4-a97d-d965ccfc6d4b" outcome="Passed" testListId="8c84fa94-04c1-424b-9868-57a2d4851a1d" relativeResultsDirectory="20f49caf-e829-4658-860b-2a06d940301e">
    </UnitTestResult>
    <UnitTestResult executionId="3531de81-02c7-4be4-b484-136e0a841516" testId="148b075a-ab93-7eec-8cca-6e299d5b6bd0" testName="RandomBoggleCharactersTest" computerName="JOE-PC" duration="00:00:00.0037711" startTime="2013-12-09T11:10:34.8102434-08:00" endTime="2013-12-09T11:10:34.8172438-08:00" testType="13cdc9d9-ddb5-4fa4-a97d-d965ccfc6d4b" outcome="Passed" testListId="8c84fa94-04c1-424b-9868-57a2d4851a1d" relativeResultsDirectory="3531de81-02c7-4be4-b484-136e0a841516">
    </UnitTestResult>
    <UnitTestResult executionId="ea3da327-1ba6-47d2-933c-629a615d33c5" testId="14ba2859-2fe0-caed-542e-f6dd22da33d8" testName="SolveTest" computerName="JOE-PC" duration="00:00:00.0115313" startTime="2013-12-09T11:10:34.8182438-08:00" endTime="2013-12-09T11:10:34.8332447-08:00" testType="13cdc9d9-ddb5-4fa4-a97d-d965ccfc6d4b" outcome="Passed" testListId="8c84fa94-04c1-424b-9868-57a2d4851a1d" relativeResultsDirectory="ea3da327-1ba6-47d2-933c-629a615d33c5">
    </UnitTestResult>
    <UnitTestResult executionId="829cb5ac-cee5-40d3-864f-0d6b5cf0a32f" testId="475c4c66-9e39-2830-3d6b-aa7e242ad22a" testName="RandomDiceTest" computerName="JOE-PC" duration="00:00:00.0027807" startTime="2013-12-09T11:10:34.8332447-08:00" endTime="2013-12-09T11:10:34.8402451-08:00" testType="13cdc9d9-ddb5-4fa4-a97d-d965ccfc6d4b" outcome="Passed" testListId="8c84fa94-04c1-424b-9868-57a2d4851a1d" relativeResultsDirectory="829cb5ac-cee5-40d3-864f-0d6b5cf0a32f">
    </UnitTestResult>
    <UnitTestResult executionId="0b685903-b93a-481a-9db0-bea1f16973bc" testId="510e65e6-8d3b-fef3-c05e-77c97a54f2b9" testName="SolveTest4" computerName="JOE-PC" duration="00:00:00.0033564" startTime="2013-12-09T11:10:34.8402451-08:00" endTime="2013-12-09T11:10:34.8472455-08:00" testType="13cdc9d9-ddb5-4fa4-a97d-d965ccfc6d4b" outcome="Passed" testListId="8c84fa94-04c1-424b-9868-57a2d4851a1d" relativeResultsDirectory="0b685903-b93a-481a-9db0-bea1f16973bc">
    </UnitTestResult>
    <UnitTestResult executionId="a1a3b8fd-74a5-49c2-8075-151919b18b3b" testId="593870f8-fd54-143c-1f37-15c1b00aeb64" testName="SolveTest1" computerName="JOE-PC" duration="00:00:00.0072554" startTime="2013-12-09T11:10:34.8482455-08:00" endTime="2013-12-09T11:10:34.8592462-08:00" testType="13cdc9d9-ddb5-4fa4-a97d-d965ccfc6d4b" outcome="Passed" testListId="8c84fa94-04c1-424b-9868-57a2d4851a1d" relativeResultsDirectory="a1a3b8fd-74a5-49c2-8075-151919b18b3b">
    </UnitTestResult>
    <UnitTestResult executionId="1c3bd966-23a7-4d4d-8e4e-09a5184bee4d" testId="67119724-7ab1-8125-16bd-4610ce2a1115" testName="SolveTest3" computerName="JOE-PC" duration="00:00:00.2745505" startTime="2013-12-09T11:10:34.8602462-08:00" endTime="2013-12-09T11:10:35.1382621-08:00" testType="13cdc9d9-ddb5-4fa4-a97d-d965ccfc6d4b" outcome="Passed" testListId="8c84fa94-04c1-424b-9868-57a2d4851a1d" relativeResultsDirectory="1c3bd966-23a7-4d4d-8e4e-09a5184bee4d">
    </UnitTestResult>
    <UnitTestResult executionId="245542f0-7f3a-411d-a97c-fb2a861d1661" testId="7d8783b6-ed1c-67e6-03fe-69bb965a995b" testName="RandomCharTest" computerName="JOE-PC" duration="00:00:00.0004165" startTime="2013-12-09T11:10:35.1392622-08:00" endTime="2013-12-09T11:10:35.1432624-08:00" testType="13cdc9d9-ddb5-4fa4-a97d-d965ccfc6d4b" outcome="Passed" testListId="8c84fa94-04c1-424b-9868-57a2d4851a1d" relativeResultsDirectory="245542f0-7f3a-411d-a97c-fb2a861d1661">
    </UnitTestResult>
    <UnitTestResult executionId="b3126216-1fed-447e-9d92-d0d81f85d6de" testId="8ccd833f-dcff-d2ae-70ed-ccda37a52407" testName="SolveTest2" computerName="JOE-PC" duration="00:00:00.0267418" startTime="2013-12-09T11:10:35.1442625-08:00" endTime="2013-12-09T11:10:35.1742642-08:00" testType="13cdc9d9-ddb5-4fa4-a97d-d965ccfc6d4b" outcome="Passed" testListId="8c84fa94-04c1-424b-9868-57a2d4851a1d" relativeResultsDirectory="b3126216-1fed-447e-9d92-d0d81f85d6de">
    </UnitTestResult>
    <UnitTestResult executionId="640aeaf6-9a38-4f93-8bb1-d99c523081b7" testId="8e2e9fc9-d059-1372-68f6-899d2547a2a1" testName="AddTest" computerName="JOE-PC" duration="00:00:00.0007907" startTime="2013-12-09T11:10:35.1752642-08:00" endTime="2013-12-09T11:10:35.1792645-08:00" testType="13cdc9d9-ddb5-4fa4-a97d-d965ccfc6d4b" outcome="Passed" testListId="8c84fa94-04c1-424b-9868-57a2d4851a1d" relativeResultsDirectory="640aeaf6-9a38-4f93-8bb1-d99c523081b7">
    </UnitTestResult>
    <UnitTestResult executionId="0e3d5c8f-5728-4120-8621-85f7e32d495f" testId="941b0ffc-a12d-e9f9-614c-a290260a69a8" testName="SearchTest" computerName="JOE-PC" duration="00:00:00.0005733" startTime="2013-12-09T11:10:35.1792645-08:00" endTime="2013-12-09T11:10:35.1832647-08:00" testType="13cdc9d9-ddb5-4fa4-a97d-d965ccfc6d4b" outcome="Passed" testListId="8c84fa94-04c1-424b-9868-57a2d4851a1d" relativeResultsDirectory="0e3d5c8f-5728-4120-8621-85f7e32d495f">
    </UnitTestResult>
    <UnitTestResult executionId="a3749c51-4061-47aa-92c5-4975960a6285" testId="99e50038-564d-38ef-e4a8-09e83e6192c3" testName="BoggleTreeConstructorTest" computerName="JOE-PC" duration="00:00:00.0017806" startTime="2013-12-09T11:10:35.1842647-08:00" endTime="2013-12-09T11:10:35.1892650-08:00" testType="13cdc9d9-ddb5-4fa4-a97d-d965ccfc6d4b" outcome="Passed" testListId="8c84fa94-04c1-424b-9868-57a2d4851a1d" relativeResultsDirectory="a3749c51-4061-47aa-92c5-4975960a6285">
    </UnitTestResult>
    <UnitTestResult executionId="f93f9ff3-5ecc-49fa-9fa9-441618aaff68" testId="aedce3ea-1615-1432-167e-5d044eb29333" testName="BoggleBoardConstructorTest" computerName="JOE-PC" duration="00:00:00.0044452" startTime="2013-12-09T11:10:35.1902651-08:00" endTime="2013-12-09T11:10:35.1972655-08:00" testType="13cdc9d9-ddb5-4fa4-a97d-d965ccfc6d4b" outcome="Passed" testListId="8c84fa94-04c1-424b-9868-57a2d4851a1d" relativeResultsDirectory="f93f9ff3-5ecc-49fa-9fa9-441618aaff68">
    </UnitTestResult>
  </Results>
</TestRun>