﻿<?xml version="1.0" encoding="UTF-8"?>
<TestRun id="afd389e6-0cd3-4205-b7be-fe2380c428ca" name="Joe@JOE-PC 2013-12-09 02:26:07" runUser="Joe-PC\Joe" xmlns="http://microsoft.com/schemas/VisualStudio/TeamTest/2010">
  <TestSettings name="Local" id="6d0bb748-144b-4c4e-af8d-6711d9d430d5">
    <Description>These are default test settings for a local test run.</Description>
    <Deployment enabled="false" runDeploymentRoot="Joe_JOE-PC 2013-12-09 02_26_07">
      <DeploymentItem filename="C:\Users\Joe\documents\visual studio 2010\Projects\WebApplication6\WebApplication6\bin\WebApplication6.dll" />
    </Deployment>
    <Execution>
      <TestTypeSpecific />
      <AgentRule name="Execution Agents">
      </AgentRule>
    </Execution>
  </TestSettings>
  <Times creation="2013-12-09T02:26:07.2008306-08:00" queuing="2013-12-09T02:26:07.2078310-08:00" start="2013-12-09T02:26:07.2138314-08:00" finish="2013-12-09T02:26:07.7768636-08:00" />
  <ResultSummary outcome="Completed">
    <Counters total="13" executed="13" passed="13" error="0" failed="0" timeout="0" aborted="0" inconclusive="0" passedButRunAborted="0" notRunnable="0" notExecuted="0" disconnected="0" warning="0" completed="0" inProgress="0" pending="0" />
  </ResultSummary>
  <TestDefinitions>
    <UnitTest name="RandomCharTest" storage="c:\users\joe\documents\visual studio 2010\projects\webapplication6\boggletest\bin\release\boggletest.dll" id="7d8783b6-ed1c-67e6-03fe-69bb965a995b">
      <Execution id="b3c13e45-e0eb-4396-b772-d52d844916b3" />
      <TestMethod codeBase="C:/Users/Joe/documents/visual studio 2010/Projects/WebApplication6/BoggleTest/bin/Release/BoggleTest.DLL" adapterTypeName="Microsoft.VisualStudio.TestTools.TestTypes.Unit.UnitTestAdapter, Microsoft.VisualStudio.QualityTools.Tips.UnitTest.Adapter, Version=10.0.0.0, Culture=neutral, PublicKeyToken=b03f5f7f11d50a3a" className="BoggleTest.BoggleDiceTest, BoggleTest, Version=1.0.0.0, Culture=neutral, PublicKeyToken=null" name="RandomCharTest" />
    </UnitTest>
    <UnitTest name="RandomDiceTest" storage="c:\users\joe\documents\visual studio 2010\projects\webapplication6\boggletest\bin\release\boggletest.dll" id="475c4c66-9e39-2830-3d6b-aa7e242ad22a">
      <Execution id="825b09b4-d6a6-406b-a5ce-4298051fa910" />
      <TestMethod codeBase="C:/Users/Joe/documents/visual studio 2010/Projects/WebApplication6/BoggleTest/bin/Release/BoggleTest.DLL" adapterTypeName="Microsoft.VisualStudio.TestTools.TestTypes.Unit.UnitTestAdapter, Microsoft.VisualStudio.QualityTools.Tips.UnitTest.Adapter, Version=10.0.0.0, Culture=neutral, PublicKeyToken=b03f5f7f11d50a3a" className="BoggleTest.BoggleDiceTest, BoggleTest, Version=1.0.0.0, Culture=neutral, PublicKeyToken=null" name="RandomDiceTest" />
    </UnitTest>
    <UnitTest name="AddTest" storage="c:\users\joe\documents\visual studio 2010\projects\webapplication6\boggletest\bin\release\boggletest.dll" id="8e2e9fc9-d059-1372-68f6-899d2547a2a1">
      <Execution id="16d652ce-59c7-4d0e-9b14-8e2b9f035288" />
      <TestMethod codeBase="C:/Users/Joe/documents/visual studio 2010/Projects/WebApplication6/BoggleTest/bin/Release/BoggleTest.DLL" adapterTypeName="Microsoft.VisualStudio.TestTools.TestTypes.Unit.UnitTestAdapter, Microsoft.VisualStudio.QualityTools.Tips.UnitTest.Adapter, Version=10.0.0.0, Culture=neutral, PublicKeyToken=b03f5f7f11d50a3a" className="BoggleTest.BoggleTreeTest, BoggleTest, Version=1.0.0.0, Culture=neutral, PublicKeyToken=null" name="AddTest" />
    </UnitTest>
    <UnitTest name="BoggleTreeConstructorTest" storage="c:\users\joe\documents\visual studio 2010\projects\webapplication6\boggletest\bin\release\boggletest.dll" id="99e50038-564d-38ef-e4a8-09e83e6192c3">
      <Execution id="67acb19d-f2c6-4659-b3ca-b665efb1d908" />
      <TestMethod codeBase="C:/Users/Joe/documents/visual studio 2010/Projects/WebApplication6/BoggleTest/bin/Release/BoggleTest.DLL" adapterTypeName="Microsoft.VisualStudio.TestTools.TestTypes.Unit.UnitTestAdapter, Microsoft.VisualStudio.QualityTools.Tips.UnitTest.Adapter, Version=10.0.0.0, Culture=neutral, PublicKeyToken=b03f5f7f11d50a3a" className="BoggleTest.BoggleTreeTest, BoggleTest, Version=1.0.0.0, Culture=neutral, PublicKeyToken=null" name="BoggleTreeConstructorTest" />
    </UnitTest>
    <UnitTest name="SolveTest1" storage="c:\users\joe\documents\visual studio 2010\projects\webapplication6\boggletest\bin\release\boggletest.dll" id="593870f8-fd54-143c-1f37-15c1b00aeb64">
      <Execution id="c25898c3-270c-4fe1-b989-1a3917cc7dc4" />
      <TestMethod codeBase="C:/Users/Joe/documents/visual studio 2010/Projects/WebApplication6/BoggleTest/bin/Release/BoggleTest.DLL" adapterTypeName="Microsoft.VisualStudio.TestTools.TestTypes.Unit.UnitTestAdapter, Microsoft.VisualStudio.QualityTools.Tips.UnitTest.Adapter, Version=10.0.0.0, Culture=neutral, PublicKeyToken=b03f5f7f11d50a3a" className="BoggleTest.BoggleSolverTest, BoggleTest, Version=1.0.0.0, Culture=neutral, PublicKeyToken=null" name="SolveTest1" />
    </UnitTest>
    <UnitTest name="RandomBoggleCharactersTest" storage="c:\users\joe\documents\visual studio 2010\projects\webapplication6\boggletest\bin\release\boggletest.dll" id="148b075a-ab93-7eec-8cca-6e299d5b6bd0">
      <Execution id="1219ddf3-960d-4fb0-bfbc-7092be55acd9" />
      <TestMethod codeBase="C:/Users/Joe/documents/visual studio 2010/Projects/WebApplication6/BoggleTest/bin/Release/BoggleTest.DLL" adapterTypeName="Microsoft.VisualStudio.TestTools.TestTypes.Unit.UnitTestAdapter, Microsoft.VisualStudio.QualityTools.Tips.UnitTest.Adapter, Version=10.0.0.0, Culture=neutral, PublicKeyToken=b03f5f7f11d50a3a" className="BoggleTest.BoggleDiceTest, BoggleTest, Version=1.0.0.0, Culture=neutral, PublicKeyToken=null" name="RandomBoggleCharactersTest" />
    </UnitTest>
    <UnitTest name="SolveTest4" storage="c:\users\joe\documents\visual studio 2010\projects\webapplication6\boggletest\bin\release\boggletest.dll" id="510e65e6-8d3b-fef3-c05e-77c97a54f2b9">
      <Execution id="18ea404b-808a-489e-ad19-ec80200f2a14" />
      <TestMethod codeBase="C:/Users/Joe/documents/visual studio 2010/Projects/WebApplication6/BoggleTest/bin/Release/BoggleTest.DLL" adapterTypeName="Microsoft.VisualStudio.TestTools.TestTypes.Unit.UnitTestAdapter, Microsoft.VisualStudio.QualityTools.Tips.UnitTest.Adapter, Version=10.0.0.0, Culture=neutral, PublicKeyToken=b03f5f7f11d50a3a" className="BoggleTest.BoggleSolverTest, BoggleTest, Version=1.0.0.0, Culture=neutral, PublicKeyToken=null" name="SolveTest4" />
    </UnitTest>
    <UnitTest name="BoggleBoardConstructorTest" storage="c:\users\joe\documents\visual studio 2010\projects\webapplication6\boggletest\bin\release\boggletest.dll" id="aedce3ea-1615-1432-167e-5d044eb29333">
      <Execution id="fcc86641-1542-45a0-8d81-dcf88ba042ab" />
      <TestMethod codeBase="C:/Users/Joe/documents/visual studio 2010/Projects/WebApplication6/BoggleTest/bin/Release/BoggleTest.DLL" adapterTypeName="Microsoft.VisualStudio.TestTools.TestTypes.Unit.UnitTestAdapter, Microsoft.VisualStudio.QualityTools.Tips.UnitTest.Adapter, Version=10.0.0.0, Culture=neutral, PublicKeyToken=b03f5f7f11d50a3a" className="BoggleTest.BoggleBoardTest, BoggleTest, Version=1.0.0.0, Culture=neutral, PublicKeyToken=null" name="BoggleBoardConstructorTest" />
    </UnitTest>
    <UnitTest name="SearchTest" storage="c:\users\joe\documents\visual studio 2010\projects\webapplication6\boggletest\bin\release\boggletest.dll" id="941b0ffc-a12d-e9f9-614c-a290260a69a8">
      <Execution id="46e5d7f2-4b62-4f47-ab99-5a9f1d2734aa" />
      <TestMethod codeBase="C:/Users/Joe/documents/visual studio 2010/Projects/WebApplication6/BoggleTest/bin/Release/BoggleTest.DLL" adapterTypeName="Microsoft.VisualStudio.TestTools.TestTypes.Unit.UnitTestAdapter, Microsoft.VisualStudio.QualityTools.Tips.UnitTest.Adapter, Version=10.0.0.0, Culture=neutral, PublicKeyToken=b03f5f7f11d50a3a" className="BoggleTest.BoggleTreeTest, BoggleTest, Version=1.0.0.0, Culture=neutral, PublicKeyToken=null" name="SearchTest" />
    </UnitTest>
    <UnitTest name="SolveTest" storage="c:\users\joe\documents\visual studio 2010\projects\webapplication6\boggletest\bin\release\boggletest.dll" id="14ba2859-2fe0-caed-542e-f6dd22da33d8">
      <Execution id="7e91372d-72ef-47d5-b1b7-a1deb86e6b62" />
      <TestMethod codeBase="C:/Users/Joe/documents/visual studio 2010/Projects/WebApplication6/BoggleTest/bin/Release/BoggleTest.DLL" adapterTypeName="Microsoft.VisualStudio.TestTools.TestTypes.Unit.UnitTestAdapter, Microsoft.VisualStudio.QualityTools.Tips.UnitTest.Adapter, Version=10.0.0.0, Culture=neutral, PublicKeyToken=b03f5f7f11d50a3a" className="BoggleTest.BoggleSolverTest, BoggleTest, Version=1.0.0.0, Culture=neutral, PublicKeyToken=null" name="SolveTest" />
    </UnitTest>
    <UnitTest name="SolveTest3" storage="c:\users\joe\documents\visual studio 2010\projects\webapplication6\boggletest\bin\release\boggletest.dll" id="67119724-7ab1-8125-16bd-4610ce2a1115">
      <Execution id="a2e72f98-84bd-45d8-8d14-155b05a20e11" />
      <TestMethod codeBase="C:/Users/Joe/documents/visual studio 2010/Projects/WebApplication6/BoggleTest/bin/Release/BoggleTest.DLL" adapterTypeName="Microsoft.VisualStudio.TestTools.TestTypes.Unit.UnitTestAdapter, Microsoft.VisualStudio.QualityTools.Tips.UnitTest.Adapter, Version=10.0.0.0, Culture=neutral, PublicKeyToken=b03f5f7f11d50a3a" className="BoggleTest.BoggleSolverTest, BoggleTest, Version=1.0.0.0, Culture=neutral, PublicKeyToken=null" name="SolveTest3" />
    </UnitTest>
    <UnitTest name="SolveTest2" storage="c:\users\joe\documents\visual studio 2010\projects\webapplication6\boggletest\bin\release\boggletest.dll" id="8ccd833f-dcff-d2ae-70ed-ccda37a52407">
      <Execution id="b432b8d1-be79-4c67-9816-7c6510b3c02a" />
      <TestMethod codeBase="C:/Users/Joe/documents/visual studio 2010/Projects/WebApplication6/BoggleTest/bin/Release/BoggleTest.DLL" adapterTypeName="Microsoft.VisualStudio.TestTools.TestTypes.Unit.UnitTestAdapter, Microsoft.VisualStudio.QualityTools.Tips.UnitTest.Adapter, Version=10.0.0.0, Culture=neutral, PublicKeyToken=b03f5f7f11d50a3a" className="BoggleTest.BoggleSolverTest, BoggleTest, Version=1.0.0.0, Culture=neutral, PublicKeyToken=null" name="SolveTest2" />
    </UnitTest>
    <UnitTest name="BoggleNodeConstructorTest" storage="c:\users\joe\documents\visual studio 2010\projects\webapplication6\boggletest\bin\release\boggletest.dll" id="0e9fc43b-fb9c-6ff5-ba59-98fd58b27c25">
      <Execution id="8176acac-a303-44ff-a5c8-9d7d35e2398d" />
      <TestMethod codeBase="C:/Users/Joe/documents/visual studio 2010/Projects/WebApplication6/BoggleTest/bin/Release/BoggleTest.DLL" adapterTypeName="Microsoft.VisualStudio.TestTools.TestTypes.Unit.UnitTestAdapter, Microsoft.VisualStudio.QualityTools.Tips.UnitTest.Adapter, Version=10.0.0.0, Culture=neutral, PublicKeyToken=b03f5f7f11d50a3a" className="BoggleTest.BoggleBoardTest, BoggleTest, Version=1.0.0.0, Culture=neutral, PublicKeyToken=null" name="BoggleNodeConstructorTest" />
    </UnitTest>
  </TestDefinitions>
  <TestLists>
    <TestList name="Results Not in a List" id="8c84fa94-04c1-424b-9868-57a2d4851a1d" />
    <TestList name="All Loaded Results" id="19431567-8539-422a-85d7-44ee4e166bda" />
  </TestLists>
  <TestEntries>
    <TestEntry testId="0e9fc43b-fb9c-6ff5-ba59-98fd58b27c25" executionId="8176acac-a303-44ff-a5c8-9d7d35e2398d" testListId="8c84fa94-04c1-424b-9868-57a2d4851a1d" />
    <TestEntry testId="148b075a-ab93-7eec-8cca-6e299d5b6bd0" executionId="1219ddf3-960d-4fb0-bfbc-7092be55acd9" testListId="8c84fa94-04c1-424b-9868-57a2d4851a1d" />
    <TestEntry testId="14ba2859-2fe0-caed-542e-f6dd22da33d8" executionId="7e91372d-72ef-47d5-b1b7-a1deb86e6b62" testListId="8c84fa94-04c1-424b-9868-57a2d4851a1d" />
    <TestEntry testId="475c4c66-9e39-2830-3d6b-aa7e242ad22a" executionId="825b09b4-d6a6-406b-a5ce-4298051fa910" testListId="8c84fa94-04c1-424b-9868-57a2d4851a1d" />
    <TestEntry testId="510e65e6-8d3b-fef3-c05e-77c97a54f2b9" executionId="18ea404b-808a-489e-ad19-ec80200f2a14" testListId="8c84fa94-04c1-424b-9868-57a2d4851a1d" />
    <TestEntry testId="593870f8-fd54-143c-1f37-15c1b00aeb64" executionId="c25898c3-270c-4fe1-b989-1a3917cc7dc4" testListId="8c84fa94-04c1-424b-9868-57a2d4851a1d" />
    <TestEntry testId="67119724-7ab1-8125-16bd-4610ce2a1115" executionId="a2e72f98-84bd-45d8-8d14-155b05a20e11" testListId="8c84fa94-04c1-424b-9868-57a2d4851a1d" />
    <TestEntry testId="7d8783b6-ed1c-67e6-03fe-69bb965a995b" executionId="b3c13e45-e0eb-4396-b772-d52d844916b3" testListId="8c84fa94-04c1-424b-9868-57a2d4851a1d" />
    <TestEntry testId="8ccd833f-dcff-d2ae-70ed-ccda37a52407" executionId="b432b8d1-be79-4c67-9816-7c6510b3c02a" testListId="8c84fa94-04c1-424b-9868-57a2d4851a1d" />
    <TestEntry testId="8e2e9fc9-d059-1372-68f6-899d2547a2a1" executionId="16d652ce-59c7-4d0e-9b14-8e2b9f035288" testListId="8c84fa94-04c1-424b-9868-57a2d4851a1d" />
    <TestEntry testId="941b0ffc-a12d-e9f9-614c-a290260a69a8" executionId="46e5d7f2-4b62-4f47-ab99-5a9f1d2734aa" testListId="8c84fa94-04c1-424b-9868-57a2d4851a1d" />
    <TestEntry testId="99e50038-564d-38ef-e4a8-09e83e6192c3" executionId="67acb19d-f2c6-4659-b3ca-b665efb1d908" testListId="8c84fa94-04c1-424b-9868-57a2d4851a1d" />
    <TestEntry testId="aedce3ea-1615-1432-167e-5d044eb29333" executionId="fcc86641-1542-45a0-8d81-dcf88ba042ab" testListId="8c84fa94-04c1-424b-9868-57a2d4851a1d" />
  </TestEntries>
  <Results>
    <UnitTestResult executionId="8176acac-a303-44ff-a5c8-9d7d35e2398d" testId="0e9fc43b-fb9c-6ff5-ba59-98fd58b27c25" testName="BoggleNodeConstructorTest" computerName="JOE-PC" duration="00:00:00.0148886" startTime="2013-12-09T02:26:07.2148314-08:00" endTime="2013-12-09T02:26:07.3818410-08:00" testType="13cdc9d9-ddb5-4fa4-a97d-d965ccfc6d4b" outcome="Passed" testListId="8c84fa94-04c1-424b-9868-57a2d4851a1d" relativeResultsDirectory="8176acac-a303-44ff-a5c8-9d7d35e2398d">
    </UnitTestResult>
    <UnitTestResult executionId="1219ddf3-960d-4fb0-bfbc-7092be55acd9" testId="148b075a-ab93-7eec-8cca-6e299d5b6bd0" testName="RandomBoggleCharactersTest" computerName="JOE-PC" duration="00:00:00.0036386" startTime="2013-12-09T02:26:07.3838411-08:00" endTime="2013-12-09T02:26:07.3948417-08:00" testType="13cdc9d9-ddb5-4fa4-a97d-d965ccfc6d4b" outcome="Passed" testListId="8c84fa94-04c1-424b-9868-57a2d4851a1d" relativeResultsDirectory="1219ddf3-960d-4fb0-bfbc-7092be55acd9">
    </UnitTestResult>
    <UnitTestResult executionId="7e91372d-72ef-47d5-b1b7-a1deb86e6b62" testId="14ba2859-2fe0-caed-542e-f6dd22da33d8" testName="SolveTest" computerName="JOE-PC" duration="00:00:00.0100767" startTime="2013-12-09T02:26:07.3958418-08:00" endTime="2013-12-09T02:26:07.4098426-08:00" testType="13cdc9d9-ddb5-4fa4-a97d-d965ccfc6d4b" outcome="Passed" testListId="8c84fa94-04c1-424b-9868-57a2d4851a1d" relativeResultsDirectory="7e91372d-72ef-47d5-b1b7-a1deb86e6b62">
    </UnitTestResult>
    <UnitTestResult executionId="825b09b4-d6a6-406b-a5ce-4298051fa910" testId="475c4c66-9e39-2830-3d6b-aa7e242ad22a" testName="RandomDiceTest" computerName="JOE-PC" duration="00:00:00.0019835" startTime="2013-12-09T02:26:07.4098426-08:00" endTime="2013-12-09T02:26:07.4158429-08:00" testType="13cdc9d9-ddb5-4fa4-a97d-d965ccfc6d4b" outcome="Passed" testListId="8c84fa94-04c1-424b-9868-57a2d4851a1d" relativeResultsDirectory="825b09b4-d6a6-406b-a5ce-4298051fa910">
    </UnitTestResult>
    <UnitTestResult executionId="18ea404b-808a-489e-ad19-ec80200f2a14" testId="510e65e6-8d3b-fef3-c05e-77c97a54f2b9" testName="SolveTest4" computerName="JOE-PC" duration="00:00:00.0026814" startTime="2013-12-09T02:26:07.4158429-08:00" endTime="2013-12-09T02:26:07.4218433-08:00" testType="13cdc9d9-ddb5-4fa4-a97d-d965ccfc6d4b" outcome="Passed" testListId="8c84fa94-04c1-424b-9868-57a2d4851a1d" relativeResultsDirectory="18ea404b-808a-489e-ad19-ec80200f2a14">
    </UnitTestResult>
    <UnitTestResult executionId="c25898c3-270c-4fe1-b989-1a3917cc7dc4" testId="593870f8-fd54-143c-1f37-15c1b00aeb64" testName="SolveTest1" computerName="JOE-PC" duration="00:00:00.0115317" startTime="2013-12-09T02:26:07.4218433-08:00" endTime="2013-12-09T02:26:07.4378442-08:00" testType="13cdc9d9-ddb5-4fa4-a97d-d965ccfc6d4b" outcome="Passed" testListId="8c84fa94-04c1-424b-9868-57a2d4851a1d" relativeResultsDirectory="c25898c3-270c-4fe1-b989-1a3917cc7dc4">
    </UnitTestResult>
    <UnitTestResult executionId="a2e72f98-84bd-45d8-8d14-155b05a20e11" testId="67119724-7ab1-8125-16bd-4610ce2a1115" testName="SolveTest3" computerName="JOE-PC" duration="00:00:00.2711105" startTime="2013-12-09T02:26:07.4388442-08:00" endTime="2013-12-09T02:26:07.7128599-08:00" testType="13cdc9d9-ddb5-4fa4-a97d-d965ccfc6d4b" outcome="Passed" testListId="8c84fa94-04c1-424b-9868-57a2d4851a1d" relativeResultsDirectory="a2e72f98-84bd-45d8-8d14-155b05a20e11">
    </UnitTestResult>
    <UnitTestResult executionId="b3c13e45-e0eb-4396-b772-d52d844916b3" testId="7d8783b6-ed1c-67e6-03fe-69bb965a995b" testName="RandomCharTest" computerName="JOE-PC" duration="00:00:00.0003974" startTime="2013-12-09T02:26:07.7138600-08:00" endTime="2013-12-09T02:26:07.7168601-08:00" testType="13cdc9d9-ddb5-4fa4-a97d-d965ccfc6d4b" outcome="Passed" testListId="8c84fa94-04c1-424b-9868-57a2d4851a1d" relativeResultsDirectory="b3c13e45-e0eb-4396-b772-d52d844916b3">
    </UnitTestResult>
    <UnitTestResult executionId="b432b8d1-be79-4c67-9816-7c6510b3c02a" testId="8ccd833f-dcff-d2ae-70ed-ccda37a52407" testName="SolveTest2" computerName="JOE-PC" duration="00:00:00.0230906" startTime="2013-12-09T02:26:07.7178602-08:00" endTime="2013-12-09T02:26:07.7438617-08:00" testType="13cdc9d9-ddb5-4fa4-a97d-d965ccfc6d4b" outcome="Passed" testListId="8c84fa94-04c1-424b-9868-57a2d4851a1d" relativeResultsDirectory="b432b8d1-be79-4c67-9816-7c6510b3c02a">
    </UnitTestResult>
    <UnitTestResult executionId="16d652ce-59c7-4d0e-9b14-8e2b9f035288" testId="8e2e9fc9-d059-1372-68f6-899d2547a2a1" testName="AddTest" computerName="JOE-PC" duration="00:00:00.0007753" startTime="2013-12-09T02:26:07.7448617-08:00" endTime="2013-12-09T02:26:07.7488620-08:00" testType="13cdc9d9-ddb5-4fa4-a97d-d965ccfc6d4b" outcome="Passed" testListId="8c84fa94-04c1-424b-9868-57a2d4851a1d" relativeResultsDirectory="16d652ce-59c7-4d0e-9b14-8e2b9f035288">
    </UnitTestResult>
    <UnitTestResult executionId="46e5d7f2-4b62-4f47-ab99-5a9f1d2734aa" testId="941b0ffc-a12d-e9f9-614c-a290260a69a8" testName="SearchTest" computerName="JOE-PC" duration="00:00:00.0005686" startTime="2013-12-09T02:26:07.7498620-08:00" endTime="2013-12-09T02:26:07.7538623-08:00" testType="13cdc9d9-ddb5-4fa4-a97d-d965ccfc6d4b" outcome="Passed" testListId="8c84fa94-04c1-424b-9868-57a2d4851a1d" relativeResultsDirectory="46e5d7f2-4b62-4f47-ab99-5a9f1d2734aa">
    </UnitTestResult>
    <UnitTestResult executionId="67acb19d-f2c6-4659-b3ca-b665efb1d908" testId="99e50038-564d-38ef-e4a8-09e83e6192c3" testName="BoggleTreeConstructorTest" computerName="JOE-PC" duration="00:00:00.0012786" startTime="2013-12-09T02:26:07.7538623-08:00" endTime="2013-12-09T02:26:07.7588625-08:00" testType="13cdc9d9-ddb5-4fa4-a97d-d965ccfc6d4b" outcome="Passed" testListId="8c84fa94-04c1-424b-9868-57a2d4851a1d" relativeResultsDirectory="67acb19d-f2c6-4659-b3ca-b665efb1d908">
    </UnitTestResult>
    <UnitTestResult executionId="fcc86641-1542-45a0-8d81-dcf88ba042ab" testId="aedce3ea-1615-1432-167e-5d044eb29333" testName="BoggleBoardConstructorTest" computerName="JOE-PC" duration="00:00:00.0035407" startTime="2013-12-09T02:26:07.7588625-08:00" endTime="2013-12-09T02:26:07.7658629-08:00" testType="13cdc9d9-ddb5-4fa4-a97d-d965ccfc6d4b" outcome="Passed" testListId="8c84fa94-04c1-424b-9868-57a2d4851a1d" relativeResultsDirectory="fcc86641-1542-45a0-8d81-dcf88ba042ab">
    </UnitTestResult>
  </Results>
</TestRun>